Bayesian Linear Regression
…
11      OH            PSA Airlines Inc.
12      OO        SkyWest Airlines Inc.
13      UA        United Air Lines Inc.
14      WN       Southwest Airlines Co.
15      YX             Republic Airline
16      QX                  Horizon Air
17      YV           Mesa Airlines Inc.
18      EV      ExpressJet Airlines LLC
19      EV     ExpressJet Airlines Inc.
20      VX               Virgin America
21      US              US Airways Inc.
22      FL  AirTran Airways Corporation
23      MQ American Eagle Airlines Inc.

# A tibble: 21 × 2
   carrier total_flights
   <chr>           <dbl>
 1 9E            1466178
 2 AA            7973061
 3 AS            1990957
 4 B6            2609697
 5 DL            8661561
 6 EV            2786903
 7 F9            1158943
 8 FL             143429
 9 G4             613357
10 HA             727265
# ℹ 11 more rows
…
