Data Exploration
…
# Display the total number of delayed flights
print(total_delayed_flights)

  total_delays
1       164638

total_arrived_flights_corrected <- AirlineDelays %>%
  group_by(carrier, airport) %>%
  summarise(arrived_flights = sum(arr_flights, na.rm = TRUE)) %>%
  summarise(total_flights = sum(arrived_flights))

print(total_arrived_flights_corrected)

# A tibble: 21 × 2
   carrier total_flights
   <chr>           <dbl>
 1 9E            1466178
 2 AA            7973061
 3 AS            1990957
 4 B6            2609697
 5 DL            8661561
 6 EV            2786903
 7 F9            1158943
 8 FL             143429
 9 G4             613357
10 HA             727265
# ℹ 11 more rows
…
